tsgx Package
…
Example 1.5: Exclude cumulative values and define
multiple grouping variables

dplyr::starwars |> 
  group_by(skin_color, gender) |> 
  generate_frequency(
    x = sex, 
    label_stub = 'Sex', 
    include_cumulative = FALSE
  )
#> # A tibble: 43 × 5
#> # Groups:   skin_color, gender [42]
#>    Sex            skin_color          gender    Frequency Percent
#>    <chr>          <chr>               <chr>         <int>   <dbl>
#>  1 female         blue                feminine          1    1.15
#>  2 female         dark                feminine          1    1.15
#>  3 female         fair                feminine          3    3.45
#>  4 female         fair, green, yellow feminine          1    1.15
#>  5 female         grey                feminine          1    1.15
#>  6 female         light               feminine          5    5.75
#>  7 female         none                feminine          1    1.15
#>  8 female         red, blue, white    feminine          1    1.15
#>  9 female         yellow              feminine          2    2.30
#> 10 hermaphroditic green-tan, brown    masculine         1    1.15
#> # ℹ 33 more rows
…
